00 01 0C //P1 joins 
00 10 05 //game start

20 61 71 F0 70 4C 32 10 20 04 7E 08 00 //mvt camera P1

20 21 AC 00 
	00 
	01 
	15 03 01 
	01 
	01 74 00 00 //selection nexus P1

01 0C 21 0B 04 40 01 21 00 //creation d'une probe P1
   0C 21 0B 04 40 01 21 00 //creation d'une probe P1

44 21 AC 00 //selection event P1
	03 00 //map de déséléction
	01 //un type d'unité selectionné
	1C 00 05 //probe
	06 //six units selected
	02 75 00 00 
	01 76 00 00 
	01 77 00 00 
	01 78 00 00 
	01 79 00 00 
	01 7A 00 00
	 
01 2C 21 0B 04 88 36 01 00 80 00 00 //go minerai P1
 
01 7C 42 80 40 00 F3 00 80 00 17 FE 00 //type2 event

5C 21 AC 00 //selection event P1
	03 00 //map de désélection
	01 //un type d'unité selectionné
	15 03 01 //nexus
	01 //1 unit selection
	01 74 00 00 
	01 // ??????????? reste de bitshift?

01 EC 21 0B 04 40 01 21 00 //creation d'une probe P1

01 54 21 09 //P1 left
